-- Merging decision tree log ---
manifest
ADDED from D:\Ptt_Digital\iterminal_mobile\android\app\src\main\AndroidManifest.xml:1:1-50:12
INJECTED from D:\Ptt_Digital\iterminal_mobile\android\app\src\main\AndroidManifest.xml:1:1-50:12
INJECTED from D:\Ptt_Digital\iterminal_mobile\android\app\src\main\AndroidManifest.xml:1:1-50:12
INJECTED from D:\Ptt_Digital\iterminal_mobile\android\app\src\main\AndroidManifest.xml:1:1-50:12
MERGED from [:image_picker] D:\Ptt_Digital\iterminal_mobile\build\image_picker\intermediates\library_manifest\release\AndroidManifest.xml:2:1-22:12
MERGED from [:flutter_plugin_android_lifecycle] D:\Ptt_Digital\iterminal_mobile\build\flutter_plugin_android_lifecycle\intermediates\library_manifest\release\AndroidManifest.xml:2:1-7:12
MERGED from [androidx.exifinterface:exifinterface:1.3.0] C:\Users\FLUKY\.gradle\caches\transforms-2\files-2.1\ef3e70141ce80265c385477b65c4f7e8\exifinterface-1.3.0\AndroidManifest.xml:17:1-24:12
MERGED from [androidx.fragment:fragment:1.1.0] C:\Users\FLUKY\.gradle\caches\transforms-2\files-2.1\0986d0d74b8a2c7da8161f6370fc7744\fragment-1.1.0\AndroidManifest.xml:17:1-24:12
MERGED from [androidx.viewpager:viewpager:1.0.0] C:\Users\FLUKY\.gradle\caches\transforms-2\files-2.1\28d99d5113324aa067757f8ca41a426f\viewpager-1.0.0\AndroidManifest.xml:17:1-22:12
MERGED from [androidx.loader:loader:1.0.0] C:\Users\FLUKY\.gradle\caches\transforms-2\files-2.1\e1bbce6b0d79e8479b70e7bd729bb743\loader-1.0.0\AndroidManifest.xml:17:1-22:12
MERGED from [androidx.activity:activity:1.0.0] C:\Users\FLUKY\.gradle\caches\transforms-2\files-2.1\615cab8ad6393a9c868d48761bbea666\activity-1.0.0\AndroidManifest.xml:17:1-24:12
MERGED from [androidx.customview:customview:1.0.0] C:\Users\FLUKY\.gradle\caches\transforms-2\files-2.1\ef0bef029ab70f5fb29de019060cf5fd\customview-1.0.0\AndroidManifest.xml:17:1-22:12
MERGED from [androidx.core:core:1.1.0] C:\Users\FLUKY\.gradle\caches\transforms-2\files-2.1\a528b13ac93e64cafa3d0480e2c93207\core-1.1.0\AndroidManifest.xml:17:1-26:12
MERGED from [androidx.lifecycle:lifecycle-runtime:2.2.0] C:\Users\FLUKY\.gradle\caches\transforms-2\files-2.1\49ede1f7b9aa322a43288e9745adc2db\lifecycle-runtime-2.2.0\AndroidManifest.xml:17:1-24:12
MERGED from [androidx.savedstate:savedstate:1.0.0] C:\Users\FLUKY\.gradle\caches\transforms-2\files-2.1\54d8b8735f730e83f07925f758092af3\savedstate-1.0.0\AndroidManifest.xml:17:1-24:12
MERGED from [androidx.lifecycle:lifecycle-livedata:2.0.0] C:\Users\FLUKY\.gradle\caches\transforms-2\files-2.1\23edc849475fdda61367cb003f9b9f93\lifecycle-livedata-2.0.0\AndroidManifest.xml:17:1-22:12
MERGED from [androidx.lifecycle:lifecycle-livedata-core:2.0.0] C:\Users\FLUKY\.gradle\caches\transforms-2\files-2.1\79f9d65ef8b1c716310f666473a689a7\lifecycle-livedata-core-2.0.0\AndroidManifest.xml:17:1-22:12
MERGED from [androidx.arch.core:core-runtime:2.0.0] C:\Users\FLUKY\.gradle\caches\transforms-2\files-2.1\077300052aa327ee6fc9bbb0ce309b24\core-runtime-2.0.0\AndroidManifest.xml:17:1-22:12
MERGED from [androidx.versionedparcelable:versionedparcelable:1.1.0] C:\Users\FLUKY\.gradle\caches\transforms-2\files-2.1\3a7eb299570065a3866b140e1a95969b\versionedparcelable-1.1.0\AndroidManifest.xml:17:1-27:12
MERGED from [androidx.lifecycle:lifecycle-viewmodel:2.1.0] C:\Users\FLUKY\.gradle\caches\transforms-2\files-2.1\b80fad55c42c418cc210e235056767fb\lifecycle-viewmodel-2.1.0\AndroidManifest.xml:17:1-22:12
INJECTED from D:\Ptt_Digital\iterminal_mobile\android\app\src\main\AndroidManifest.xml:1:1-50:12
INJECTED from D:\Ptt_Digital\iterminal_mobile\android\app\src\main\AndroidManifest.xml:1:1-50:12
INJECTED from D:\Ptt_Digital\iterminal_mobile\android\app\src\main\AndroidManifest.xml:1:1-50:12
	package
		ADDED from D:\Ptt_Digital\iterminal_mobile\android\app\src\main\AndroidManifest.xml:2:5-34
		INJECTED from D:\Ptt_Digital\iterminal_mobile\android\app\src\main\AndroidManifest.xml
		INJECTED from D:\Ptt_Digital\iterminal_mobile\android\app\src\main\AndroidManifest.xml
	android:versionName
		INJECTED from D:\Ptt_Digital\iterminal_mobile\android\app\src\main\AndroidManifest.xml
		ADDED from D:\Ptt_Digital\iterminal_mobile\android\app\src\main\AndroidManifest.xml:1:1-50:12
		INJECTED from D:\Ptt_Digital\iterminal_mobile\android\app\src\main\AndroidManifest.xml
	android:versionCode
		INJECTED from D:\Ptt_Digital\iterminal_mobile\android\app\src\main\AndroidManifest.xml
		ADDED from D:\Ptt_Digital\iterminal_mobile\android\app\src\main\AndroidManifest.xml:1:1-50:12
		INJECTED from D:\Ptt_Digital\iterminal_mobile\android\app\src\main\AndroidManifest.xml
	xmlns:android
		ADDED from D:\Ptt_Digital\iterminal_mobile\android\app\src\main\AndroidManifest.xml:1:11-69
uses-permission#android.permission.INTERNET
ADDED from D:\Ptt_Digital\iterminal_mobile\android\app\src\main\AndroidManifest.xml:9:5-66
	android:name
		ADDED from D:\Ptt_Digital\iterminal_mobile\android\app\src\main\AndroidManifest.xml:9:22-64
application
ADDED from D:\Ptt_Digital\iterminal_mobile\android\app\src\main\AndroidManifest.xml:11:5-49:19
MERGED from [:image_picker] D:\Ptt_Digital\iterminal_mobile\build\image_picker\intermediates\library_manifest\release\AndroidManifest.xml:10:5-20:19
MERGED from [:image_picker] D:\Ptt_Digital\iterminal_mobile\build\image_picker\intermediates\library_manifest\release\AndroidManifest.xml:10:5-20:19
MERGED from [androidx.core:core:1.1.0] C:\Users\FLUKY\.gradle\caches\transforms-2\files-2.1\a528b13ac93e64cafa3d0480e2c93207\core-1.1.0\AndroidManifest.xml:24:5-89
MERGED from [androidx.core:core:1.1.0] C:\Users\FLUKY\.gradle\caches\transforms-2\files-2.1\a528b13ac93e64cafa3d0480e2c93207\core-1.1.0\AndroidManifest.xml:24:5-89
MERGED from [androidx.versionedparcelable:versionedparcelable:1.1.0] C:\Users\FLUKY\.gradle\caches\transforms-2\files-2.1\3a7eb299570065a3866b140e1a95969b\versionedparcelable-1.1.0\AndroidManifest.xml:24:5-25:19
MERGED from [androidx.versionedparcelable:versionedparcelable:1.1.0] C:\Users\FLUKY\.gradle\caches\transforms-2\files-2.1\3a7eb299570065a3866b140e1a95969b\versionedparcelable-1.1.0\AndroidManifest.xml:24:5-25:19
	android:appComponentFactory
		ADDED from [androidx.core:core:1.1.0] C:\Users\FLUKY\.gradle\caches\transforms-2\files-2.1\a528b13ac93e64cafa3d0480e2c93207\core-1.1.0\AndroidManifest.xml:24:18-86
	android:label
		ADDED from D:\Ptt_Digital\iterminal_mobile\android\app\src\main\AndroidManifest.xml:13:9-29
	android:icon
		ADDED from D:\Ptt_Digital\iterminal_mobile\android\app\src\main\AndroidManifest.xml:14:9-43
	android:name
		ADDED from D:\Ptt_Digital\iterminal_mobile\android\app\src\main\AndroidManifest.xml:12:9-57
activity#com.pttor.iterminal.MainActivity
ADDED from D:\Ptt_Digital\iterminal_mobile\android\app\src\main\AndroidManifest.xml:15:9-43:20
	android:launchMode
		ADDED from D:\Ptt_Digital\iterminal_mobile\android\app\src\main\AndroidManifest.xml:17:13-43
	android:hardwareAccelerated
		ADDED from D:\Ptt_Digital\iterminal_mobile\android\app\src\main\AndroidManifest.xml:20:13-47
	android:windowSoftInputMode
		ADDED from D:\Ptt_Digital\iterminal_mobile\android\app\src\main\AndroidManifest.xml:21:13-55
	android:configChanges
		ADDED from D:\Ptt_Digital\iterminal_mobile\android\app\src\main\AndroidManifest.xml:19:13-163
	android:theme
		ADDED from D:\Ptt_Digital\iterminal_mobile\android\app\src\main\AndroidManifest.xml:18:13-47
	android:name
		ADDED from D:\Ptt_Digital\iterminal_mobile\android\app\src\main\AndroidManifest.xml:16:13-41
meta-data#io.flutter.embedding.android.NormalTheme
ADDED from D:\Ptt_Digital\iterminal_mobile\android\app\src\main\AndroidManifest.xml:26:13-29:17
	android:resource
		ADDED from D:\Ptt_Digital\iterminal_mobile\android\app\src\main\AndroidManifest.xml:28:15-52
	android:name
		ADDED from D:\Ptt_Digital\iterminal_mobile\android\app\src\main\AndroidManifest.xml:27:15-70
meta-data#io.flutter.embedding.android.SplashScreenDrawable
ADDED from D:\Ptt_Digital\iterminal_mobile\android\app\src\main\AndroidManifest.xml:35:13-38:17
	android:resource
		ADDED from D:\Ptt_Digital\iterminal_mobile\android\app\src\main\AndroidManifest.xml:37:15-61
	android:name
		ADDED from D:\Ptt_Digital\iterminal_mobile\android\app\src\main\AndroidManifest.xml:36:15-79
intent-filter#action:name:android.intent.action.MAIN+category:name:android.intent.category.LAUNCHER
ADDED from D:\Ptt_Digital\iterminal_mobile\android\app\src\main\AndroidManifest.xml:39:13-42:29
action#android.intent.action.MAIN
ADDED from D:\Ptt_Digital\iterminal_mobile\android\app\src\main\AndroidManifest.xml:40:17-68
	android:name
		ADDED from D:\Ptt_Digital\iterminal_mobile\android\app\src\main\AndroidManifest.xml:40:25-66
category#android.intent.category.LAUNCHER
ADDED from D:\Ptt_Digital\iterminal_mobile\android\app\src\main\AndroidManifest.xml:41:17-76
	android:name
		ADDED from D:\Ptt_Digital\iterminal_mobile\android\app\src\main\AndroidManifest.xml:41:27-74
meta-data#flutterEmbedding
ADDED from D:\Ptt_Digital\iterminal_mobile\android\app\src\main\AndroidManifest.xml:46:9-48:33
	android:value
		ADDED from D:\Ptt_Digital\iterminal_mobile\android\app\src\main\AndroidManifest.xml:48:13-30
	android:name
		ADDED from D:\Ptt_Digital\iterminal_mobile\android\app\src\main\AndroidManifest.xml:47:13-44
uses-sdk
INJECTED from D:\Ptt_Digital\iterminal_mobile\android\app\src\main\AndroidManifest.xml reason: use-sdk injection requested
INJECTED from D:\Ptt_Digital\iterminal_mobile\android\app\src\main\AndroidManifest.xml
INJECTED from D:\Ptt_Digital\iterminal_mobile\android\app\src\main\AndroidManifest.xml
MERGED from [:image_picker] D:\Ptt_Digital\iterminal_mobile\build\image_picker\intermediates\library_manifest\release\AndroidManifest.xml:5:5-44
MERGED from [:image_picker] D:\Ptt_Digital\iterminal_mobile\build\image_picker\intermediates\library_manifest\release\AndroidManifest.xml:5:5-44
MERGED from [:flutter_plugin_android_lifecycle] D:\Ptt_Digital\iterminal_mobile\build\flutter_plugin_android_lifecycle\intermediates\library_manifest\release\AndroidManifest.xml:5:5-44
MERGED from [:flutter_plugin_android_lifecycle] D:\Ptt_Digital\iterminal_mobile\build\flutter_plugin_android_lifecycle\intermediates\library_manifest\release\AndroidManifest.xml:5:5-44
MERGED from [androidx.exifinterface:exifinterface:1.3.0] C:\Users\FLUKY\.gradle\caches\transforms-2\files-2.1\ef3e70141ce80265c385477b65c4f7e8\exifinterface-1.3.0\AndroidManifest.xml:20:5-22:41
MERGED from [androidx.exifinterface:exifinterface:1.3.0] C:\Users\FLUKY\.gradle\caches\transforms-2\files-2.1\ef3e70141ce80265c385477b65c4f7e8\exifinterface-1.3.0\AndroidManifest.xml:20:5-22:41
MERGED from [androidx.fragment:fragment:1.1.0] C:\Users\FLUKY\.gradle\caches\transforms-2\files-2.1\0986d0d74b8a2c7da8161f6370fc7744\fragment-1.1.0\AndroidManifest.xml:20:5-22:41
MERGED from [androidx.fragment:fragment:1.1.0] C:\Users\FLUKY\.gradle\caches\transforms-2\files-2.1\0986d0d74b8a2c7da8161f6370fc7744\fragment-1.1.0\AndroidManifest.xml:20:5-22:41
MERGED from [androidx.viewpager:viewpager:1.0.0] C:\Users\FLUKY\.gradle\caches\transforms-2\files-2.1\28d99d5113324aa067757f8ca41a426f\viewpager-1.0.0\AndroidManifest.xml:20:5-44
MERGED from [androidx.viewpager:viewpager:1.0.0] C:\Users\FLUKY\.gradle\caches\transforms-2\files-2.1\28d99d5113324aa067757f8ca41a426f\viewpager-1.0.0\AndroidManifest.xml:20:5-44
MERGED from [androidx.loader:loader:1.0.0] C:\Users\FLUKY\.gradle\caches\transforms-2\files-2.1\e1bbce6b0d79e8479b70e7bd729bb743\loader-1.0.0\AndroidManifest.xml:20:5-44
MERGED from [androidx.loader:loader:1.0.0] C:\Users\FLUKY\.gradle\caches\transforms-2\files-2.1\e1bbce6b0d79e8479b70e7bd729bb743\loader-1.0.0\AndroidManifest.xml:20:5-44
MERGED from [androidx.activity:activity:1.0.0] C:\Users\FLUKY\.gradle\caches\transforms-2\files-2.1\615cab8ad6393a9c868d48761bbea666\activity-1.0.0\AndroidManifest.xml:20:5-22:41
MERGED from [androidx.activity:activity:1.0.0] C:\Users\FLUKY\.gradle\caches\transforms-2\files-2.1\615cab8ad6393a9c868d48761bbea666\activity-1.0.0\AndroidManifest.xml:20:5-22:41
MERGED from [androidx.customview:customview:1.0.0] C:\Users\FLUKY\.gradle\caches\transforms-2\files-2.1\ef0bef029ab70f5fb29de019060cf5fd\customview-1.0.0\AndroidManifest.xml:20:5-44
MERGED from [androidx.customview:customview:1.0.0] C:\Users\FLUKY\.gradle\caches\transforms-2\files-2.1\ef0bef029ab70f5fb29de019060cf5fd\customview-1.0.0\AndroidManifest.xml:20:5-44
MERGED from [androidx.core:core:1.1.0] C:\Users\FLUKY\.gradle\caches\transforms-2\files-2.1\a528b13ac93e64cafa3d0480e2c93207\core-1.1.0\AndroidManifest.xml:20:5-22:41
MERGED from [androidx.core:core:1.1.0] C:\Users\FLUKY\.gradle\caches\transforms-2\files-2.1\a528b13ac93e64cafa3d0480e2c93207\core-1.1.0\AndroidManifest.xml:20:5-22:41
MERGED from [androidx.lifecycle:lifecycle-runtime:2.2.0] C:\Users\FLUKY\.gradle\caches\transforms-2\files-2.1\49ede1f7b9aa322a43288e9745adc2db\lifecycle-runtime-2.2.0\AndroidManifest.xml:20:5-22:41
MERGED from [androidx.lifecycle:lifecycle-runtime:2.2.0] C:\Users\FLUKY\.gradle\caches\transforms-2\files-2.1\49ede1f7b9aa322a43288e9745adc2db\lifecycle-runtime-2.2.0\AndroidManifest.xml:20:5-22:41
MERGED from [androidx.savedstate:savedstate:1.0.0] C:\Users\FLUKY\.gradle\caches\transforms-2\files-2.1\54d8b8735f730e83f07925f758092af3\savedstate-1.0.0\AndroidManifest.xml:20:5-22:41
MERGED from [androidx.savedstate:savedstate:1.0.0] C:\Users\FLUKY\.gradle\caches\transforms-2\files-2.1\54d8b8735f730e83f07925f758092af3\savedstate-1.0.0\AndroidManifest.xml:20:5-22:41
MERGED from [androidx.lifecycle:lifecycle-livedata:2.0.0] C:\Users\FLUKY\.gradle\caches\transforms-2\files-2.1\23edc849475fdda61367cb003f9b9f93\lifecycle-livedata-2.0.0\AndroidManifest.xml:20:5-44
MERGED from [androidx.lifecycle:lifecycle-livedata:2.0.0] C:\Users\FLUKY\.gradle\caches\transforms-2\files-2.1\23edc849475fdda61367cb003f9b9f93\lifecycle-livedata-2.0.0\AndroidManifest.xml:20:5-44
MERGED from [androidx.lifecycle:lifecycle-livedata-core:2.0.0] C:\Users\FLUKY\.gradle\caches\transforms-2\files-2.1\79f9d65ef8b1c716310f666473a689a7\lifecycle-livedata-core-2.0.0\AndroidManifest.xml:20:5-44
MERGED from [androidx.lifecycle:lifecycle-livedata-core:2.0.0] C:\Users\FLUKY\.gradle\caches\transforms-2\files-2.1\79f9d65ef8b1c716310f666473a689a7\lifecycle-livedata-core-2.0.0\AndroidManifest.xml:20:5-44
MERGED from [androidx.arch.core:core-runtime:2.0.0] C:\Users\FLUKY\.gradle\caches\transforms-2\files-2.1\077300052aa327ee6fc9bbb0ce309b24\core-runtime-2.0.0\AndroidManifest.xml:20:5-44
MERGED from [androidx.arch.core:core-runtime:2.0.0] C:\Users\FLUKY\.gradle\caches\transforms-2\files-2.1\077300052aa327ee6fc9bbb0ce309b24\core-runtime-2.0.0\AndroidManifest.xml:20:5-44
MERGED from [androidx.versionedparcelable:versionedparcelable:1.1.0] C:\Users\FLUKY\.gradle\caches\transforms-2\files-2.1\3a7eb299570065a3866b140e1a95969b\versionedparcelable-1.1.0\AndroidManifest.xml:20:5-22:41
MERGED from [androidx.versionedparcelable:versionedparcelable:1.1.0] C:\Users\FLUKY\.gradle\caches\transforms-2\files-2.1\3a7eb299570065a3866b140e1a95969b\versionedparcelable-1.1.0\AndroidManifest.xml:20:5-22:41
MERGED from [androidx.lifecycle:lifecycle-viewmodel:2.1.0] C:\Users\FLUKY\.gradle\caches\transforms-2\files-2.1\b80fad55c42c418cc210e235056767fb\lifecycle-viewmodel-2.1.0\AndroidManifest.xml:20:5-44
MERGED from [androidx.lifecycle:lifecycle-viewmodel:2.1.0] C:\Users\FLUKY\.gradle\caches\transforms-2\files-2.1\b80fad55c42c418cc210e235056767fb\lifecycle-viewmodel-2.1.0\AndroidManifest.xml:20:5-44
INJECTED from D:\Ptt_Digital\iterminal_mobile\android\app\src\main\AndroidManifest.xml
INJECTED from D:\Ptt_Digital\iterminal_mobile\android\app\src\main\AndroidManifest.xml
	android:targetSdkVersion
		INJECTED from D:\Ptt_Digital\iterminal_mobile\android\app\src\main\AndroidManifest.xml
		ADDED from D:\Ptt_Digital\iterminal_mobile\android\app\src\main\AndroidManifest.xml
		INJECTED from D:\Ptt_Digital\iterminal_mobile\android\app\src\main\AndroidManifest.xml
	android:minSdkVersion
		INJECTED from D:\Ptt_Digital\iterminal_mobile\android\app\src\main\AndroidManifest.xml
		ADDED from D:\Ptt_Digital\iterminal_mobile\android\app\src\main\AndroidManifest.xml
		INJECTED from D:\Ptt_Digital\iterminal_mobile\android\app\src\main\AndroidManifest.xml
uses-permission#android.permission.READ_EXTERNAL_STORAGE
ADDED from [:image_picker] D:\Ptt_Digital\iterminal_mobile\build\image_picker\intermediates\library_manifest\release\AndroidManifest.xml:7:5-80
	android:name
		ADDED from [:image_picker] D:\Ptt_Digital\iterminal_mobile\build\image_picker\intermediates\library_manifest\release\AndroidManifest.xml:7:22-77
uses-permission#android.permission.WRITE_EXTERNAL_STORAGE
ADDED from [:image_picker] D:\Ptt_Digital\iterminal_mobile\build\image_picker\intermediates\library_manifest\release\AndroidManifest.xml:8:5-81
	android:name
		ADDED from [:image_picker] D:\Ptt_Digital\iterminal_mobile\build\image_picker\intermediates\library_manifest\release\AndroidManifest.xml:8:22-78
provider#io.flutter.plugins.imagepicker.ImagePickerFileProvider
ADDED from [:image_picker] D:\Ptt_Digital\iterminal_mobile\build\image_picker\intermediates\library_manifest\release\AndroidManifest.xml:11:9-19:20
	android:grantUriPermissions
		ADDED from [:image_picker] D:\Ptt_Digital\iterminal_mobile\build\image_picker\intermediates\library_manifest\release\AndroidManifest.xml:15:13-47
	android:authorities
		ADDED from [:image_picker] D:\Ptt_Digital\iterminal_mobile\build\image_picker\intermediates\library_manifest\release\AndroidManifest.xml:13:13-74
	android:exported
		ADDED from [:image_picker] D:\Ptt_Digital\iterminal_mobile\build\image_picker\intermediates\library_manifest\release\AndroidManifest.xml:14:13-37
	android:name
		ADDED from [:image_picker] D:\Ptt_Digital\iterminal_mobile\build\image_picker\intermediates\library_manifest\release\AndroidManifest.xml:12:13-82
meta-data#android.support.FILE_PROVIDER_PATHS
ADDED from [:image_picker] D:\Ptt_Digital\iterminal_mobile\build\image_picker\intermediates\library_manifest\release\AndroidManifest.xml:16:13-18:75
	android:resource
		ADDED from [:image_picker] D:\Ptt_Digital\iterminal_mobile\build\image_picker\intermediates\library_manifest\release\AndroidManifest.xml:18:17-72
	android:name
		ADDED from [:image_picker] D:\Ptt_Digital\iterminal_mobile\build\image_picker\intermediates\library_manifest\release\AndroidManifest.xml:17:17-67
